…
This document will perform Market Segmentation Analysis on the data provided by KTC. We will be looking into importing and performing cluster analysis on the data to find useful patterns in Customer data.

------------------------------------------------------------------------

## 2. Descriptive Mining

We are going to explore the data and find the patterns and do the segmentation.

### 2.1. Data Exploration

We have information regarding 30 customers of KTC Company. We have details of their Age, Income, Marital Status, No. of Children and their financial status in the means of whether they have a mortgage loan and other loans.


```
## # A tibble: 30 × 7
##      Age Female Income Married Children  Loan Mortgage
##    <dbl>  <dbl>  <dbl>   <dbl>    <dbl> <dbl>    <dbl>
##  1    48      1 17546        0        1     0        0
##  2    40      0 30085.       1        3     1        1
##  3    51      1 16575.       1        0     1        0
##  4    23      1 20375.       1        3     0        0
##  5    57      1 50576.       1        0     0        0
##  6    57      1 37870.       1        2     0        0
##  7    22      0  8877.       0        0     0        0
##  8    58      0 24947.       1        0     1        0
##  9    37      1 25304.       1        2     1        0
## 10    54      0 24212.       1        2     1        0
## # ℹ 20 more rows
```
…
